{
    "KPlugin": {
        "Authors": [
            {
                "Email": "a3at.mail@gmail.com",
                "Name": "Azat Khuzhin",
                "Name[ar]": "Azat Khuzhin",
                "Name[az]": "Azat Khuzhin",
                "Name[bg]": "Azat Khuzhin",
                "Name[ca@valencia]": "Azat Khuzhin",
                "Name[ca]": "Azat Khuzhin",
                "Name[cs]": "Azat Khuzhin",
                "Name[da]": "Azat Khuzhin",
                "Name[de]": "Azat Khuzhin",
                "Name[el]": "Azat Khuzhin",
                "Name[en_GB]": "Azat Khuzhin",
                "Name[es]": "Azat Khuzhin",
                "Name[et]": "Azat Khuzhin",
                "Name[eu]": "Azat Khuzhin",
                "Name[fi]": "Azat Khuzhin",
                "Name[fr]": "Azat Khuzhin",
                "Name[gl]": "Azat Khuzhin",
                "Name[hu]": "Azat Khuzhin",
                "Name[ia]": "Azat Khuzhin",
                "Name[it]": "Azat Khuzhin",
                "Name[ka]": "Azat Khuzhin",
                "Name[ko]": "Azat Khuzhin",
                "Name[lt]": "Azat Khuzhin",
                "Name[nl]": "Azat Khuzhin",
                "Name[nn]": "Azat Khuzhin",
                "Name[pl]": "Azat Khuzhin",
                "Name[pt]": "Azat Khuzhin",
                "Name[pt_BR]": "Azat Khuzhin",
                "Name[ro]": "Azat Khuzhin",
                "Name[ru]": "Азат Хужин",
                "Name[sk]": "Azat Khuzhin",
                "Name[sl]": "Azat Khuzhin",
                "Name[sr@ijekavian]": "Азат Хужин",
                "Name[sr@ijekavianlatin]": "Azat Hužin",
                "Name[sr@latin]": "Azat Hužin",
                "Name[sr]": "Азат Хужин",
                "Name[sv]": "Azat Khuzhin",
                "Name[tr]": "Azat Khuzhin",
                "Name[uk]": "Azat Khuzhin",
                "Name[vi]": "Azat Khuzhin",
                "Name[x-test]": "xxAzat Khuzhinxx",
                "Name[zh_CN]": "Azat Khuzhin",
                "Name[zh_TW]": "Azat Khuzhin"
            }
        ],
        "Copyright": "© 2013 Azat Khuzhin",
        "Copyright[ar]": "© 2013 Azat Khuzhin",
        "Copyright[az]": "© 2013 Azat Khuzhin",
        "Copyright[bg]": "© 2013 Azat Khuzhin",
        "Copyright[ca@valencia]": "© 2013 Azat Khuzhin",
        "Copyright[ca]": "© 2013 Azat Khuzhin",
        "Copyright[cs]": "© 2013 Azat Khuzhin",
        "Copyright[da]": "© 2013 Azat Khuzhin",
        "Copyright[de]": "© 2013 Azat Khuzhin",
        "Copyright[el]": "© 2013 Azat Khuzhin",
        "Copyright[en_GB]": "© 2013 Azat Khuzhin",
        "Copyright[es]": "© 2013 Azat Khuzhin",
        "Copyright[et]": "© 2013: Azat Khuzhin",
        "Copyright[eu]": "© 2013 Azat Khuzhin",
        "Copyright[fi]": "© 2013 Azat Khuzhin",
        "Copyright[fr]": "© 2013 Azat Khuzhin",
        "Copyright[gl]": "© 2013 Azat Khuzhin",
        "Copyright[hu]": "© Azat Khuzhin, 2013.",
        "Copyright[ia]": "© 2013 Azat Khuzhin",
        "Copyright[it]": "© 2013 Azat Khuzhin",
        "Copyright[ka]": "© 2013 Azat Khuzhin",
        "Copyright[ko]": "© 2013 Azat Khuzhin",
        "Copyright[lt]": "© 2013 Azat Khuzhin",
        "Copyright[nl]": "© 2013 Azat Khuzhin",
        "Copyright[nn]": "© 2013 Azat Khuzhin",
        "Copyright[pa]": "© 2013 Azat Khuzhin",
        "Copyright[pl]": "© 2013 Azat Khuzhin",
        "Copyright[pt]": "© 2013 Azat Khuzhin",
        "Copyright[pt_BR]": "© 2013 Azat Khuzhin",
        "Copyright[ro]": "© 2013 Azat Khuzhin",
        "Copyright[ru]": "© Азат Хужин, 2013",
        "Copyright[sk]": "© 2013 Azat Khuzhin",
        "Copyright[sl]": "© 2013 Azat Khuzhin",
        "Copyright[sr@ijekavian]": "© 2013, Азат Хужин",
        "Copyright[sr@ijekavianlatin]": "© 2013, Azat Hužin",
        "Copyright[sr@latin]": "© 2013, Azat Hužin",
        "Copyright[sr]": "© 2013, Азат Хужин",
        "Copyright[sv]": "© 2013 Azat Khuzhin",
        "Copyright[tr]": "© 2013 Azat Khuzhin",
        "Copyright[uk]": "© Azat Khuzhin, 2013",
        "Copyright[vi]": "© 2013 Azat Khuzhin",
        "Copyright[x-test]": "xx© 2013 Azat Khuzhinxx",
        "Copyright[zh_CN]": "© 2013 Azat Khuzhin",
        "Copyright[zh_TW]": "© 2013 Azat Khuzhin",
        "Description": "Txt backend",
        "Description[ar]": "خلفية النص",
        "Description[az]": "Txt modulu",
        "Description[bg]": "Бекенд на Txt ",
        "Description[ca@valencia]": "Dorsal de txt",
        "Description[ca]": "Dorsal de txt",
        "Description[cs]": "Podpůrná vrstva txt",
        "Description[da]": "Txt-backend",
        "Description[de]": "Anzeigemodul für Textformat",
        "Description[el]": "Σύστημα υποστήριξης txt",
        "Description[en_GB]": "Txt backend",
        "Description[es]": "Motor Txt",
        "Description[et]": "Txt taustaprogramm",
        "Description[eu]": "Txt-ren bizkarraldekoa",
        "Description[fi]": "Txt-taustaosa",
        "Description[fr]": "Moteur Txt",
        "Description[gl]": "Infraestrutura para txt.",
        "Description[hu]": "TXT modul",
        "Description[ia]": "Retro-administration per Txt ",
        "Description[it]": "Backend di testo semplice",
        "Description[ka]": "Txt უკანაბოლო",
        "Description[ko]": "TXT 백엔드",
        "Description[lt]": "Txt programinė sąsaja",
        "Description[nl]": "Txt-backend",
        "Description[nn]": "Txt-motor",
        "Description[pa]": "Txt ਬੈਕਐਂਡ",
        "Description[pl]": "Obsługa plików tekstowych",
        "Description[pt]": "Infra-estrutura de TXT",
        "Description[pt_BR]": "Infraestrutura Txt",
        "Description[ro]": "Platformă Txt",
        "Description[ru]": "Модуль поддержки формата Txt",
        "Description[sk]": "Txt backend",
        "Description[sl]": "Zaledje za txt",
        "Description[sr@ijekavian]": "Позадина за текст",
        "Description[sr@ijekavianlatin]": "Pozadina za tekst",
        "Description[sr@latin]": "Pozadina za tekst",
        "Description[sr]": "Позадина за текст",
        "Description[sv]": "Textgränssnitt",
        "Description[tr]": "Txt arka ucu",
        "Description[uk]": "Модуль тексту",
        "Description[vi]": "Hậu phương Txt",
        "Description[x-test]": "xxTxt backendxx",
        "Description[zh_CN]": "纯文本后端",
        "Description[zh_TW]": "Txt 後端介面",
        "Id": "okular_txt",
        "License": "GPL",
        "MimeTypes": [
            "text/plain"
        ],
        "Name": "Txt Backend",
        "Name[ar]": "خلفية النص",
        "Name[az]": "Txt modulu",
        "Name[bg]": "Бекенд на Txt ",
        "Name[ca@valencia]": "Dorsal txt",
        "Name[ca]": "Dorsal txt",
        "Name[cs]": "Podpůrná vrstva txt",
        "Name[da]": "Txt-backend",
        "Name[de]": "Anzeigemodul für Textformat",
        "Name[el]": "Σύστημα υποστήριξης txt",
        "Name[en_GB]": "Txt Backend",
        "Name[es]": "Motor para Txt",
        "Name[et]": "Txt taustaprogramm",
        "Name[eu]": "Txt-ren bizkarraldekoa",
        "Name[fi]": "Txt-taustaosa",
        "Name[fr]": "Moteur Txt",
        "Name[gl]": "Infraestrutura para txt",
        "Name[hu]": "TXT modul",
        "Name[ia]": "Retro-administration per Txt ",
        "Name[it]": "Backend di testo semplice",
        "Name[ka]": "Txt უკანაბოლო",
        "Name[ko]": "TXT 백엔드",
        "Name[lt]": "Txt programinė sąsaja",
        "Name[nl]": "Txt-backend",
        "Name[nn]": "Txt-motor",
        "Name[pa]": "Txt ਬੈਕਐਂਡ",
        "Name[pl]": "Obsługa plików tekstowych",
        "Name[pt]": "Infra-Estrutura de TXT",
        "Name[pt_BR]": "Infraestrutura Txt",
        "Name[ro]": "Platformă Txt",
        "Name[ru]": "Модуль поддержки формата Txt",
        "Name[sk]": "Txt backend",
        "Name[sl]": "Zaledje za txt",
        "Name[sr@ijekavian]": "Позадина за текст",
        "Name[sr@ijekavianlatin]": "Pozadina za tekst",
        "Name[sr@latin]": "Pozadina za tekst",
        "Name[sr]": "Позадина за текст",
        "Name[sv]": "Textgränssnitt",
        "Name[tr]": "Txt Arka Ucu",
        "Name[uk]": "Модуль тексту",
        "Name[vi]": "Hậu phương Txt",
        "Name[x-test]": "xxTxt Backendxx",
        "Name[zh_CN]": "纯文本后端",
        "Name[zh_TW]": "Txt 後端介面",
        "Version": "0.1"
    },
    "X-KDE-Priority": 2,
    "X-KDE-okularAPIVersion": 1,
    "X-KDE-okularHasInternalSettings": true
}
