{
    "KPlugin": {
        "Authors": [
            {
                "Email": "bradh@frogmouth.net",
                "Name": "Brad Hards",
                "Name[ar]": "Brad Hards",
                "Name[az]": "Brad Hards",
                "Name[bg]": "Brad Hards",
                "Name[ca@valencia]": "Brad Hards",
                "Name[ca]": "Brad Hards",
                "Name[cs]": "Brad Hards",
                "Name[da]": "Brad Hards",
                "Name[de]": "Brad Hards",
                "Name[el]": "Brad Hards",
                "Name[en_GB]": "Brad Hards",
                "Name[es]": "Brad Hards",
                "Name[et]": "Brad Hards",
                "Name[eu]": "Brad Hards",
                "Name[fi]": "Brad Hards",
                "Name[fr]": "Brad Hards",
                "Name[gl]": "Brad Hards",
                "Name[hu]": "Brad Hards",
                "Name[ia]": "Brad Hards",
                "Name[it]": "Brad Hards",
                "Name[ka]": "Brad Hards",
                "Name[ko]": "Brad Hards",
                "Name[lt]": "Brad Hards",
                "Name[nl]": "Brad Hards",
                "Name[nn]": "Brad Hards",
                "Name[pa]": "ਬਰਾਂਡ ਹਾਰਡਸ",
                "Name[pl]": "Brad Hards",
                "Name[pt]": "Brad Hards",
                "Name[pt_BR]": "Brad Hards",
                "Name[ro]": "Brad Hards",
                "Name[ru]": "Brad Hards",
                "Name[sk]": "Brad Hards",
                "Name[sl]": "Brad Hards",
                "Name[sr@ijekavian]": "Бред Хардс",
                "Name[sr@ijekavianlatin]": "Bred Hards",
                "Name[sr@latin]": "Bred Hards",
                "Name[sr]": "Бред Хардс",
                "Name[sv]": "Brad Hards",
                "Name[ta]": "பிராட் ஹார்ட்ஸ்",
                "Name[tr]": "Brad Hards",
                "Name[uk]": "Brad Hards",
                "Name[vi]": "Brad Hards",
                "Name[x-test]": "xxBrad Hardsxx",
                "Name[zh_CN]": "Brad Hards",
                "Name[zh_TW]": "Brad Hards"
            },
            {
                "Email": "jiri.klement@gmail.com",
                "Name": "Jiri Klement",
                "Name[ar]": "Jiri Klement",
                "Name[az]": "Jiri Klement",
                "Name[bg]": "Jiri Klement",
                "Name[ca@valencia]": "Jiri Klement",
                "Name[ca]": "Jiri Klement",
                "Name[cs]": "Jiří Klement",
                "Name[da]": "Jiri Klement",
                "Name[de]": "Jiri Klement",
                "Name[el]": "Jiri Klement",
                "Name[en_GB]": "Jiri Klement",
                "Name[es]": "Jiri Klement",
                "Name[et]": "Jiri Klement",
                "Name[eu]": "Jiri Klement",
                "Name[fi]": "Jiri Klement",
                "Name[fr]": "Jiri Klement",
                "Name[gl]": "Jiri Klement",
                "Name[hu]": "Jiri Klement",
                "Name[ia]": "Jiri Klement",
                "Name[it]": "Jiri Klement",
                "Name[ka]": "Jiri Klement",
                "Name[ko]": "Jiri Klement",
                "Name[lt]": "Jiri Klement",
                "Name[nl]": "Jiri Klement",
                "Name[nn]": "Jiri Klement",
                "Name[pl]": "Jiri Klement",
                "Name[pt]": "Jiri Klement",
                "Name[pt_BR]": "Jiri Klement",
                "Name[ro]": "Jiri Klement",
                "Name[ru]": "Jiri Klement",
                "Name[sk]": "Jiri Klement",
                "Name[sl]": "Jiri Klement",
                "Name[sr@ijekavian]": "Јиржи Клемент",
                "Name[sr@ijekavianlatin]": "Jirži Klement",
                "Name[sr@latin]": "Jirži Klement",
                "Name[sr]": "Јиржи Клемент",
                "Name[sv]": "Jiri Klement",
                "Name[tr]": "Jiri Klement",
                "Name[uk]": "Jiri Klement",
                "Name[vi]": "Jiri Klement",
                "Name[x-test]": "xxJiri Klementxx",
                "Name[zh_CN]": "Jiri Klement",
                "Name[zh_TW]": "Jiri Klement"
            },
            {
                "Email": "pino@kde.org",
                "Name": "Pino Toscano",
                "Name[ar]": "Pino Toscano",
                "Name[az]": "Pino Toscano",
                "Name[bg]": "Pino Toscano",
                "Name[ca@valencia]": "Pino Toscano",
                "Name[ca]": "Pino Toscano",
                "Name[cs]": "Pino Toscano",
                "Name[da]": "Pino Toscano",
                "Name[de]": "Pino Toscano",
                "Name[el]": "Pino Toscano",
                "Name[en_GB]": "Pino Toscano",
                "Name[es]": "Pino Toscano",
                "Name[et]": "Pino Toscano",
                "Name[eu]": "Pino Toscano",
                "Name[fi]": "Pino Toscano",
                "Name[fr]": "Pino Toscano",
                "Name[gl]": "Pino Toscano",
                "Name[hu]": "Pino Toscano",
                "Name[ia]": "Pino Toscano",
                "Name[it]": "Pino Toscano",
                "Name[ka]": "Pino Toscano",
                "Name[ko]": "Pino Toscano",
                "Name[lt]": "Pino Toscano",
                "Name[nl]": "Pino Toscano",
                "Name[nn]": "Pino Toscano",
                "Name[pa]": "ਪਿਨੋ ਟਿਸਕਾਨੋ",
                "Name[pl]": "Pino Toscano",
                "Name[pt]": "Pino Toscano",
                "Name[pt_BR]": "Pino Toscano",
                "Name[ro]": "Pino Toscano",
                "Name[ru]": "Pino Toscano",
                "Name[sk]": "Pino Toscano",
                "Name[sl]": "Pino Toscano",
                "Name[sr@ijekavian]": "Пино Тоскано",
                "Name[sr@ijekavianlatin]": "Pino Toskano",
                "Name[sr@latin]": "Pino Toskano",
                "Name[sr]": "Пино Тоскано",
                "Name[sv]": "Pino Toscano",
                "Name[tr]": "Pino Toscano",
                "Name[uk]": "Pino Toscano",
                "Name[vi]": "Pino Toscano",
                "Name[x-test]": "xxPino Toscanoxx",
                "Name[zh_CN]": "Pino Toscano",
                "Name[zh_TW]": "Pino Toscano"
            }
        ],
        "Copyright": "© 2006-2007 Brad Hards\n© 2007 Jiri Klement\n© 2008 Pino Toscano",
        "Copyright[ar]": "© 2006-2007 Brad Hards\n© 2007 Jiri Klement\n© 2008 Pino Toscano",
        "Copyright[az]": "© 2006-2007 Brad Hards\n© 2007 Jiri Klement\n© 2008 Pino Toscano",
        "Copyright[bg]": "© 2006-2007 Brad Hards\n© 2007 Jiri Klement\n© 2008 Pino Toscano",
        "Copyright[ca@valencia]": "© 2006-2007 Brad Hards\n© 2007 Jiri Klement\n© 2008 Pino Toscano",
        "Copyright[ca]": "© 2006-2007 Brad Hards\n© 2007 Jiri Klement\n© 2008 Pino Toscano",
        "Copyright[cs]": "© 2006-2007 Brad Hards\n© 2007 Jiri Klement\n© 2008 Pino Toscano",
        "Copyright[da]": "© 2006-2007 Brad Hards\n© 2007 Jiri Klement\n© 2008 Pino Toscano",
        "Copyright[de]": "© 2006-2007 Brad Hards\n© 2007 Jiri Klement\n© 2008 Pino Toscano",
        "Copyright[el]": "© 2006-2007 Brad Hards\n© 2007 Jiri Klement\n© 2008 Pino Toscano",
        "Copyright[en_GB]": "© 2006-2007 Brad Hards\n© 2007 Jiri Klement\n© 2008 Pino Toscano",
        "Copyright[es]": "© 2006-2007 Brad Hards\n© 2007 Jiri Klement\n© 2008 Pino Toscano",
        "Copyright[et]": "© 2006-2007: Brad Hards\n© 2007: Jiri Klement\n© 2008: Pino Toscano",
        "Copyright[eu]": "© 2006-2007 Brad Hards\n© 2007 Jiri Klement\n© 2008 Pino Toscano",
        "Copyright[fi]": "© 2006–2007 Brad Hards\n© 2007 Jiri Klement\n© 2008 Pino Toscano",
        "Copyright[fr]": "© 2006-2007 Brad Hards\n© 2007 Jiri Klement\n© 2008 Pino Toscano",
        "Copyright[gl]": "© 2006-2007 Brad Hards\n© 2007 Jiri Klement\n© 2008 Pino Toscano",
        "Copyright[hu]": "© Brad Hards, 2006-2007.\n© Jiri Klement, 2007.\n© Pino Toscano, 2008.",
        "Copyright[ia]": "© 2006-2007 Brad Hards\n© 2007 Jiri Klement\n© 2008 Pino Toscano",
        "Copyright[it]": "© 2006-2007 Brad Hards\n© 2007 Jiri Klement\n© 2008 Pino Toscano",
        "Copyright[ka]": "© 2006-2007 Brad Hards\n© 2007 Jiri Klement\n© 2008 Pino Toscano",
        "Copyright[ko]": "© 2006-2007 Brad Hards\n© 2007 Jiri Klement\n© 2008 Pino Toscano",
        "Copyright[lt]": "© 2006-2007 Brad Hards\n© 2007 Jiri Klement\n© 2008 Pino Toscano",
        "Copyright[nl]": "© 2006-2007 Brad Hards\n© 2007 Jiri Klement\n© 2008 Pino Toscano",
        "Copyright[nn]": "© 2006–2007 Brad Hards\n© 2007 Jiri Klement\n© 2008 Pino Toscano",
        "Copyright[pa]": "© 2006-2007 Brad Hards\n© 2007 Jiri Klement\n© 2008 Pino Toscano",
        "Copyright[pl]": "© 2006-2007 Brad Hards\n© 2007 Jiri Klement\n© 2008 Pino Toscano",
        "Copyright[pt]": "© 2006-2007 Brad Hards\n© 2007 Jiri Klement\n© 2008 Pino Toscano",
        "Copyright[pt_BR]": "© 2006-2007 Brad Hards\n© 2007 Jiri Klement\n© 2008 Pino Toscano",
        "Copyright[ro]": "© 2006-2007 Brad Hards\n© 2007 Jiri Klement\n© 2008 Pino Toscano",
        "Copyright[ru]": "© Brad Hards, 2006-2007\n© Jiri Klement, 2007\n© Pino Toscano, 2008",
        "Copyright[sk]": "© 2006-2007 Brad Hards\n© 2007 Jiri Klement\n© 2008 Pino Toscano",
        "Copyright[sl]": "© 2006-2007 Brad Hards\n© 2007 Jiri Klement\n© 2008 Pino Toscano",
        "Copyright[sr@ijekavian]": "© 2006–2007, Бред Хардс\n© 2007, Јиржи Клемент\n© 2008, Пино Тоскано",
        "Copyright[sr@ijekavianlatin]": "© 2006–2007, Bred Hards\n© 2007, Jirži Klement\n© 2008, Pino Toskano",
        "Copyright[sr@latin]": "© 2006–2007, Bred Hards\n© 2007, Jirži Klement\n© 2008, Pino Toskano",
        "Copyright[sr]": "© 2006–2007, Бред Хардс\n© 2007, Јиржи Клемент\n© 2008, Пино Тоскано",
        "Copyright[sv]": "© 2006-2007 Brad Hards\n© 2007 Jiri Klement\n© 2008 Pino Toscano",
        "Copyright[tr]": "© 2006-2007 Brad Hards\n© 2007 Jiri Klement\n© 2008 Pino Toscano",
        "Copyright[uk]": "© Brad Hards, 2006–2007\n© Jiri Klement, 2007\n© Pino Toscano, 2008",
        "Copyright[vi]": "© 2006-2007 Brad Hards\n© 2007 Jiri Klement\n© 2008 Pino Toscano",
        "Copyright[x-test]": "xx© 2006-2007 Brad Hards\n© 2007 Jiri Klement\n© 2008 Pino Toscanoxx",
        "Copyright[zh_CN]": "© 2006-2007 Brad Hards\n© 2007 Jiri Klement\n© 2008 Pino Toscano",
        "Copyright[zh_TW]": "© 2006-2007 Brad Hards\n© 2007 Jiri Klement\n© 2008 Pino Toscano",
        "Description": "An XPS backend",
        "Description[ar]": "خلفية XPS",
        "Description[az]": "XPS modulu",
        "Description[bg]": "Бекенд на XPS ",
        "Description[ca@valencia]": "Un dorsal de XPS",
        "Description[ca]": "Un dorsal de XPS",
        "Description[cs]": "Podpůrná vrstva XPS",
        "Description[da]": "En XPS-backend",
        "Description[de]": "Ein Anzeigemodul für XPS",
        "Description[el]": "Σύστημα υποστήριξης XPS",
        "Description[en_GB]": "An XPS backend",
        "Description[es]": "Un motor para XPS",
        "Description[et]": "XPS-i taustaprogramm",
        "Description[eu]": "XPS-ren bizkarraldeko bat",
        "Description[fi]": "XPS-taustaosa",
        "Description[fr]": "Un moteur XPS",
        "Description[gl]": "Unha infraestrutura para XPS",
        "Description[hu]": "XPS modul",
        "Description[ia]": "Un retro-administration de XPS",
        "Description[it]": "Un backend per XPS",
        "Description[ka]": "XPS უკანაბოლო",
        "Description[ko]": "XPS 백엔드",
        "Description[lt]": "XPS programinė sąsaja",
        "Description[nl]": "Een XPS-backend",
        "Description[nn]": "Ein XPS-motor",
        "Description[pa]": "XPS ਬੈਕਐਂਡ",
        "Description[pl]": "Obsługa formatu XPS",
        "Description[pt]": "Uma infra-estrutura de XPS",
        "Description[pt_BR]": "Uma infraestrutura XPS",
        "Description[ro]": "O platformă XPS",
        "Description[ru]": "Модуль поддержки формата XPS",
        "Description[sk]": "XPS backend",
        "Description[sl]": "Zaledje za XPS",
        "Description[sr@ijekavian]": "Позадина за ИксПС",
        "Description[sr@ijekavianlatin]": "Pozadina za XPS",
        "Description[sr@latin]": "Pozadina za XPS",
        "Description[sr]": "Позадина за ИксПС",
        "Description[sv]": "Ett XPS-gränssnitt",
        "Description[tr]": "Bir XPS arka ucu",
        "Description[uk]": "Програма для XPS",
        "Description[vi]": "Một hậu phương XPS",
        "Description[x-test]": "xxAn XPS backendxx",
        "Description[zh_CN]": "XPS 后端",
        "Description[zh_TW]": "XPS 後端介面",
        "Id": "okular_xps",
        "License": "GPL",
        "MimeTypes": [
            "application/oxps",
            "application/vnd.ms-xpsdocument"
        ],
        "Name": "XPS Backend",
        "Name[ar]": "خلفية XPS",
        "Name[az]": "XPS modulu",
        "Name[bg]": "Бекенд на XPS ",
        "Name[ca@valencia]": "Dorsal XPS",
        "Name[ca]": "Dorsal XPS",
        "Name[cs]": "Podpůrná vrstva XPS",
        "Name[da]": "XPS-backend",
        "Name[de]": "Anzeigemodul für XPS",
        "Name[el]": "Σύστημα υποστήριξης XPS",
        "Name[en_GB]": "XPS Backend",
        "Name[es]": "Motor para XPS",
        "Name[et]": "XPS-i taustaprogramm",
        "Name[eu]": "XPS-ren bizkarraldekoa",
        "Name[fi]": "XPS-taustaosa",
        "Name[fr]": "Moteur XPS",
        "Name[gl]": "Infraestrutura para XPS",
        "Name[hu]": "XPS modul",
        "Name[ia]": "Retro-Administration de XPS",
        "Name[it]": "Backend XPS",
        "Name[ka]": "XPS უკანაბოლო",
        "Name[ko]": "XPS 백엔드",
        "Name[lt]": "XPS programinė sąsaja",
        "Name[nl]": "XPS-backend",
        "Name[nn]": "XPS-motor",
        "Name[pa]": "XPS ਬੈਕਐਂਡ",
        "Name[pl]": "Obsługa XPS",
        "Name[pt]": "Infra-Estrutura de XPS",
        "Name[pt_BR]": "Infraestrutura XPS",
        "Name[ro]": "Platformă XPS",
        "Name[ru]": "Модуль поддержки формата XPS",
        "Name[sk]": "XPS Backend",
        "Name[sl]": "Zaledje za XPS",
        "Name[sr@ijekavian]": "Позадина за ИксПС",
        "Name[sr@ijekavianlatin]": "Pozadina za XPS",
        "Name[sr@latin]": "Pozadina za XPS",
        "Name[sr]": "Позадина за ИксПС",
        "Name[sv]": "XPS-gränssnitt",
        "Name[tr]": "XPS Arka Ucu",
        "Name[uk]": "Модуль XPS",
        "Name[vi]": "Hậu phương XPS",
        "Name[x-test]": "xxXPS Backendxx",
        "Name[zh_CN]": "XPS 后端",
        "Name[zh_TW]": "XPS 後端介面",
        "Version": "0.3.3"
    },
    "X-KDE-Priority": 4,
    "X-KDE-okularAPIVersion": 1,
    "X-KDE-okularHasInternalSettings": false
}
